^C:\USERS\YEB01\DESKTOP\AR93D_EUNBI\AR93D_EUNBI\AR9CLIENT\INCLUDE\UNITYBUILDER\UNITYBUILDER1.CPP
/c /ZI /nologo /W3 /WX- /sdl /Od /Oy- /D _CRT_SECURE_NO_WARNINGS /D _UNICODE /D UNICODE /Gm /EHsc /RTC1 /MDd /GS /fp:precise /Zc:wchar_t /Zc:forScope /Zc:inline /Fo"UNITY_DEBUG\\" /Fd"UNITY_DEBUG\VC140.PDB" /Gd /TP /analyze- C:\USERS\YEB01\DESKTOP\AR93D_EUNBI\AR93D_EUNBI\AR9CLIENT\INCLUDE\UNITYBUILDER\UNITYBUILDER1.CPP
^C:\USERS\YEB01\DESKTOP\AR93D_EUNBI\AR93D_EUNBI\AR9CLIENT\INCLUDE\OBJECTSCRIPT\FARMOBJECT.CPP
/c /ZI /nologo /W3 /WX- /sdl /Od /Oy- /D _CRT_SECURE_NO_WARNINGS /D _UNICODE /D UNICODE /Gm /EHsc /RTC1 /MDd /GS /fp:precise /Zc:wchar_t /Zc:forScope /Zc:inline /Fo"UNITY_DEBUG\\" /Fd"UNITY_DEBUG\VC140.PDB" /Gd /TP /analyze- C:\USERS\YEB01\DESKTOP\AR93D_EUNBI\AR93D_EUNBI\AR9CLIENT\INCLUDE\OBJECTSCRIPT\FARMOBJECT.CPP
^C:\USERS\YEB01\DESKTOP\AR93D_EUNBI\AR93D_EUNBI\AR9CLIENT\INCLUDE\OBJECTSCRIPT\LANDDIRT.CPP
/c /ZI /nologo /W3 /WX- /sdl /Od /Oy- /D _CRT_SECURE_NO_WARNINGS /D _UNICODE /D UNICODE /Gm /EHsc /RTC1 /MDd /GS /fp:precise /Zc:wchar_t /Zc:forScope /Zc:inline /Fo"UNITY_DEBUG\\" /Fd"UNITY_DEBUG\VC140.PDB" /Gd /TP /analyze- C:\USERS\YEB01\DESKTOP\AR93D_EUNBI\AR93D_EUNBI\AR9CLIENT\INCLUDE\OBJECTSCRIPT\LANDDIRT.CPP
^C:\USERS\YEB01\DESKTOP\AR93D_EUNBI\AR93D_EUNBI\AR9CLIENT\INCLUDE\OBJECTSCRIPT\PLANT.CPP
/c /ZI /nologo /W3 /WX- /sdl /Od /Oy- /D _CRT_SECURE_NO_WARNINGS /D _UNICODE /D UNICODE /Gm /EHsc /RTC1 /MDd /GS /fp:precise /Zc:wchar_t /Zc:forScope /Zc:inline /Fo"UNITY_DEBUG\\" /Fd"UNITY_DEBUG\VC140.PDB" /Gd /TP /analyze- C:\USERS\YEB01\DESKTOP\AR93D_EUNBI\AR93D_EUNBI\AR9CLIENT\INCLUDE\OBJECTSCRIPT\PLANT.CPP
^C:\USERS\USER\DESKTOP\AR93D_EUNBI\AR93D_EUNBI\AR9CLIENT\INCLUDE\OBJECTSCRIPT\FARMOBJECT.CPP
/c /ZI /nologo /W3 /WX- /sdl /Od /Oy- /D _CRT_SECURE_NO_WARNINGS /D _UNICODE /D UNICODE /Gm /EHsc /RTC1 /MDd /GS /fp:precise /Zc:wchar_t /Zc:forScope /Zc:inline /Fo"UNITY_DEBUG\\" /Fd"UNITY_DEBUG\VC140.PDB" /Gd /TP /analyze- C:\USERS\USER\DESKTOP\AR93D_EUNBI\AR93D_EUNBI\AR9CLIENT\INCLUDE\OBJECTSCRIPT\FARMOBJECT.CPP
^C:\USERS\USER\DESKTOP\AR93D_EUNBI\AR93D_EUNBI\AR9CLIENT\INCLUDE\OBJECTSCRIPT\PLANT.CPP
/c /ZI /nologo /W3 /WX- /sdl /Od /Oy- /D _CRT_SECURE_NO_WARNINGS /D _UNICODE /D UNICODE /Gm /EHsc /RTC1 /MDd /GS /fp:precise /Zc:wchar_t /Zc:forScope /Zc:inline /Fo"UNITY_DEBUG\\" /Fd"UNITY_DEBUG\VC140.PDB" /Gd /TP /analyze- C:\USERS\USER\DESKTOP\AR93D_EUNBI\AR93D_EUNBI\AR9CLIENT\INCLUDE\OBJECTSCRIPT\PLANT.CPP
^C:\USERS\USER\DESKTOP\AR93D_EUNBI\AR93D_EUNBI\AR9CLIENT\INCLUDE\UNITYBUILDER\UNITYBUILDER1.CPP
/c /ZI /nologo /W3 /WX- /sdl /Od /Oy- /D _CRT_SECURE_NO_WARNINGS /D _UNICODE /D UNICODE /Gm /EHsc /RTC1 /MDd /GS /fp:precise /Zc:wchar_t /Zc:forScope /Zc:inline /Fo"UNITY_DEBUG\\" /Fd"UNITY_DEBUG\VC140.PDB" /Gd /TP /analyze- C:\USERS\USER\DESKTOP\AR93D_EUNBI\AR93D_EUNBI\AR9CLIENT\INCLUDE\UNITYBUILDER\UNITYBUILDER1.CPP
